EESchema Schematic File Version 2
LIBS:power
LIBS:device
LIBS:switches
LIBS:relays
LIBS:motors
LIBS:transistors
LIBS:conn
LIBS:linear
LIBS:regul
LIBS:74xx
LIBS:cmos4000
LIBS:adc-dac
LIBS:memory
LIBS:xilinx
LIBS:microcontrollers
LIBS:dsp
LIBS:microchip
LIBS:analog_switches
LIBS:motorola
LIBS:texas
LIBS:intel
LIBS:audio
LIBS:interface
LIBS:digital-audio
LIBS:philips
LIBS:display
LIBS:cypress
LIBS:siliconi
LIBS:opto
LIBS:atmel
LIBS:contrib
LIBS:valves
LIBS:promicro
LIBS:FET
LIBS:JFET
LIBS:fanduino-cache
EELAYER 25 0
EELAYER END
$Descr A4 11693 8268
encoding utf-8
Sheet 1 1
Title "fanduino"
Date ""
Rev ""
Comp ""
Comment1 ""
Comment2 ""
Comment3 ""
Comment4 ""
$EndDescr
$Comp
L ProMicro U1
U 1 1 5B47E6D1
P 2500 2600
F 0 "U1" H 2500 3550 60  0000 C CNN
F 1 "ProMicro" H 2500 2050 60  0000 C CNN
F 2 "" H 2600 1550 60  0000 C CNN
F 3 "" H 2600 1550 60  0000 C CNN
	1    2500 2600
	1    0    0    -1  
$EndComp
$Comp
L R R1
U 1 1 5B47EC38
P 3700 3750
F 0 "R1" V 3780 3750 50  0000 C CNN
F 1 "330Ω" V 3700 3750 50  0000 C CNN
F 2 "" V 3630 3750 50  0001 C CNN
F 3 "" H 3700 3750 50  0001 C CNN
	1    3700 3750
	0    -1   -1   0   
$EndComp
$Comp
L R R2
U 1 1 5B47ED0B
P 4200 4000
F 0 "R2" V 4280 4000 50  0000 C CNN
F 1 "1MΩ" V 4200 4000 50  0000 C CNN
F 2 "" V 4130 4000 50  0001 C CNN
F 3 "" H 4200 4000 50  0001 C CNN
	1    4200 4000
	1    0    0    -1  
$EndComp
$Comp
L Motor_DC M1
U 1 1 5B47EF18
P 4650 2550
F 0 "M1" H 4750 2650 50  0000 L CNN
F 1 "Motor_DC" H 4750 2350 50  0000 L TNN
F 2 "" H 4650 2460 50  0001 C CNN
F 3 "" H 4650 2460 50  0001 C CNN
	1    4650 2550
	1    0    0    -1  
$EndComp
$Comp
L D_ALT D1
U 1 1 5B47F229
P 5250 2600
F 0 "D1" H 5250 2700 50  0000 C CNN
F 1 "D_ALT" H 5250 2500 50  0000 C CNN
F 2 "" H 5250 2600 50  0001 C CNN
F 3 "" H 5250 2600 50  0001 C CNN
	1    5250 2600
	0    1    1    0   
$EndComp
$Comp
L C C1
U 1 1 5B47F2E8
P 5550 2600
F 0 "C1" H 5575 2700 50  0000 L CNN
F 1 "0.1μF" H 5575 2500 50  0000 L CNN
F 2 "" H 5588 2450 50  0001 C CNN
F 3 "" H 5550 2600 50  0001 C CNN
	1    5550 2600
	1    0    0    -1  
$EndComp
$Comp
L SW_Push SW2
U 1 1 5B480447
P 3850 3050
F 0 "SW2" H 3900 3150 50  0000 L CNN
F 1 "SW_Push" V 3850 2990 50  0000 C CNN
F 2 "" H 3850 3250 50  0001 C CNN
F 3 "" H 3850 3250 50  0001 C CNN
	1    3850 3050
	0    -1   -1   0   
$EndComp
$Comp
L SW_Push SW3
U 1 1 5B4804CA
P 4150 3050
F 0 "SW3" H 4200 3150 50  0000 L CNN
F 1 "SW_Push" H 4150 2990 50  0000 C CNN
F 2 "" H 4150 3250 50  0001 C CNN
F 3 "" H 4150 3250 50  0001 C CNN
	1    4150 3050
	0    -1   -1   0   
$EndComp
Wire Wire Line
	4650 1400 4650 2350
Connection ~ 4650 2150
Wire Wire Line
	5250 2150 5250 2450
Connection ~ 5250 2150
Wire Wire Line
	5550 2150 5550 2450
Wire Wire Line
	4650 2850 4650 3550
Connection ~ 4650 2950
Wire Wire Line
	5250 2750 5250 2950
Wire Wire Line
	4650 2950 5550 2950
Connection ~ 5250 2950
Wire Wire Line
	5550 2950 5550 2750
Wire Wire Line
	4650 3950 4650 4350
Wire Wire Line
	3850 3750 4350 3750
Connection ~ 4200 3750
Connection ~ 4650 4200
Wire Wire Line
	4200 3750 4200 3850
Wire Wire Line
	4200 4150 4200 4200
Wire Wire Line
	4200 4200 4650 4200
Wire Wire Line
	1800 2950 1600 2950
Wire Wire Line
	1600 2950 1600 3750
Wire Wire Line
	1600 3750 3550 3750
Wire Wire Line
	3850 3250 3850 3350
Wire Wire Line
	4150 3250 4150 3350
Wire Wire Line
	3200 2750 3850 2750
Wire Wire Line
	3850 2750 3850 2850
Wire Wire Line
	3200 2650 4150 2650
Wire Wire Line
	4150 2650 4150 2850
Wire Wire Line
	1050 2150 1800 2150
$Comp
L SW_Push SW1
U 1 1 5B4D31D9
P 3550 3050
F 0 "SW1" H 3600 3150 50  0000 L CNN
F 1 "SW_Push" H 3550 2990 50  0000 C CNN
F 2 "" H 3550 3250 50  0001 C CNN
F 3 "" H 3550 3250 50  0001 C CNN
	1    3550 3050
	0    -1   -1   0   
$EndComp
Wire Wire Line
	3200 2850 3550 2850
$Comp
L Earth #PWR01
U 1 1 5B4D327A
P 3550 3350
F 0 "#PWR01" H 3550 3100 50  0001 C CNN
F 1 "Earth" H 3550 3200 50  0001 C CNN
F 2 "" H 3550 3350 50  0001 C CNN
F 3 "" H 3550 3350 50  0001 C CNN
	1    3550 3350
	1    0    0    -1  
$EndComp
$Comp
L Earth #PWR02
U 1 1 5B4D32A2
P 3850 3350
F 0 "#PWR02" H 3850 3100 50  0001 C CNN
F 1 "Earth" H 3850 3200 50  0001 C CNN
F 2 "" H 3850 3350 50  0001 C CNN
F 3 "" H 3850 3350 50  0001 C CNN
	1    3850 3350
	1    0    0    -1  
$EndComp
$Comp
L Earth #PWR03
U 1 1 5B4D32CA
P 4150 3350
F 0 "#PWR03" H 4150 3100 50  0001 C CNN
F 1 "Earth" H 4150 3200 50  0001 C CNN
F 2 "" H 4150 3350 50  0001 C CNN
F 3 "" H 4150 3350 50  0001 C CNN
	1    4150 3350
	1    0    0    -1  
$EndComp
$Comp
L Earth #PWR04
U 1 1 5B4D32F2
P 4650 4350
F 0 "#PWR04" H 4650 4100 50  0001 C CNN
F 1 "Earth" H 4650 4200 50  0001 C CNN
F 2 "" H 4650 4350 50  0001 C CNN
F 3 "" H 4650 4350 50  0001 C CNN
	1    4650 4350
	1    0    0    -1  
$EndComp
$Comp
L Q_NMOS_DGS Q1
U 1 1 5B4D39B9
P 4550 3750
F 0 "Q1" H 4750 3800 50  0000 L CNN
F 1 "2SK2231" H 4750 3700 50  0000 L CNN
F 2 "" H 4750 3850 50  0001 C CNN
F 3 "" H 4550 3750 50  0001 C CNN
	1    4550 3750
	1    0    0    -1  
$EndComp
$Comp
L Earth #PWR05
U 1 1 5B4D3AA6
P 1300 2350
F 0 "#PWR05" H 1300 2100 50  0001 C CNN
F 1 "Earth" H 1300 2200 50  0001 C CNN
F 2 "" H 1300 2350 50  0001 C CNN
F 3 "" H 1300 2350 50  0001 C CNN
	1    1300 2350
	1    0    0    -1  
$EndComp
Wire Wire Line
	1300 2150 1300 2350
Wire Wire Line
	3550 3250 3550 3350
NoConn ~ 3200 2550
NoConn ~ 3200 2450
NoConn ~ 3200 2350
NoConn ~ 3200 2250
NoConn ~ 3200 2050
NoConn ~ 3200 1950
NoConn ~ 3200 1850
NoConn ~ 1800 1850
NoConn ~ 1800 1950
NoConn ~ 1800 2050
NoConn ~ 1800 2250
NoConn ~ 1800 2350
NoConn ~ 1800 2450
NoConn ~ 1800 2550
NoConn ~ 1800 2650
NoConn ~ 1800 2750
NoConn ~ 1800 2850
NoConn ~ 3200 2950
$Comp
L VCC #PWR06
U 1 1 5B4D83F0
P 4650 1400
F 0 "#PWR06" H 4650 1250 50  0001 C CNN
F 1 "VCC" H 4650 1550 50  0000 C CNN
F 2 "" H 4650 1400 50  0001 C CNN
F 3 "" H 4650 1400 50  0001 C CNN
	1    4650 1400
	1    0    0    -1  
$EndComp
$Comp
L VCC #PWR07
U 1 1 5B4D8418
P 3550 1400
F 0 "#PWR07" H 3550 1250 50  0001 C CNN
F 1 "VCC" H 3550 1550 50  0000 C CNN
F 2 "" H 3550 1400 50  0001 C CNN
F 3 "" H 3550 1400 50  0001 C CNN
	1    3550 1400
	1    0    0    -1  
$EndComp
Wire Wire Line
	4650 2150 5550 2150
Wire Wire Line
	3550 1400 3550 2150
Wire Wire Line
	3550 2150 3200 2150
$Comp
L PWR_FLAG #FLG08
U 1 1 5B4D8B85
P 3900 1400
F 0 "#FLG08" H 3900 1475 50  0001 C CNN
F 1 "PWR_FLAG" H 3900 1550 50  0000 C CNN
F 2 "" H 3900 1400 50  0001 C CNN
F 3 "" H 3900 1400 50  0001 C CNN
	1    3900 1400
	1    0    0    -1  
$EndComp
Connection ~ 3550 1600
Wire Wire Line
	3900 1400 3900 1600
Wire Wire Line
	3900 1600 3550 1600
$Comp
L PWR_FLAG #FLG09
U 1 1 5B4D8C07
P 1050 2000
F 0 "#FLG09" H 1050 2075 50  0001 C CNN
F 1 "PWR_FLAG" H 1050 2150 50  0000 C CNN
F 2 "" H 1050 2000 50  0001 C CNN
F 3 "" H 1050 2000 50  0001 C CNN
	1    1050 2000
	1    0    0    -1  
$EndComp
Connection ~ 1300 2150
Wire Wire Line
	1050 2000 1050 2150
$EndSCHEMATC
